{
  "app.components.Accordion.header": "Accordion componet",
  "app.components.AreaDropdown.placeholder": "Area",
  "app.components.Badge.issuedBy": "Issued by {issuerName}",
  "app.components.BadgeList.claimable": "Claimable",
  "app.components.BadgeList.creator": "Creator",
  "app.components.BadgeList.issued": "Issued",
  "app.components.BadgeList.logo": "Logo",
  "app.components.BadgeList.name": "Badge Name",
  "app.components.BadgeList.noBadges": "There are no badges",
  "app.components.BadgeSelection.header": "This is the BadgeSelection component !",
  "app.components.CategorySearchForm.label": "Search Badge",
  "app.components.CategorySearchForm.maxLengthMessageError": "Must be {max} characters or less",
  "app.components.CertificationList.tableHeadListBadgeName": "Badge Name",
  "app.components.CertificationList.tableHeadListEmailAddress": "Email Address",
  "app.components.CertificationList.tableHeadListEvidence": "Evidence",
  "app.components.CertificationList.tableHeadListExpiration": "Expiration",
  "app.components.CertificationList.tableHeadListIssueDate": "Issue Date",
  "app.components.CertificationList.tableHeadListWinnerName": "Winner Name",
  "app.components.ClaimBadge.claim.email.label": "Email Address",
  "app.components.ClaimBadge.claim.email.valid": "Email looks great :)",
  "app.components.ClaimBadge.claim.name.label": "Your Name",
  "app.components.ClaimBadge.claim.subTitle": "I hereby declare that I am a fan of {newBadgeName} on {today}",
  "app.components.ClaimBadge.claim.submit": "배지 발급 요청",
  "app.components.ClaimBadge.claim.title": "배지 발급 요청",
  "app.components.ClaimBadge.confirm.subTitle": "배지를 획득하려면, 이메일 확인 후, 메일속 링크를 클릭하세요.",
  "app.components.ClaimBadge.confirm.submit": "이메일 재전송 요청",
  "app.components.ClaimBadge.confirm.title": "이메일을 확인하세요",
  "app.components.ClaimBadge.isEmailValid": "정확한 이메일 주소를 입력하세요",
  "app.components.ColorPicker.mode.background": "Background Color",
  "app.components.ColorPicker.mode.custom": "CUSTOM",
  "app.components.ColorPicker.mode.palette": "CB PALETTE",
  "app.components.ColorPicker.mode.text": "Text Color",
  "app.components.CountDown.day": "Days",
  "app.components.CountDown.hour": "Hours",
  "app.components.CountDown.minute": "Minutes",
  "app.components.CountDown.second": "Seconds",
  "app.components.CountryDropdown.placeholder": "Choose Your Country",
  "app.components.EditProfileForm.cancel": "Cancel",
  "app.components.EditProfileForm.descriptionPlaceholder": "Write about yourself",
  "app.components.EditProfileForm.namePlaceholder": "Name",
  "app.components.EditProfileForm.notAllowed": "This combination is not allowed.",
  "app.components.EditProfileForm.sameColor": "Text color and background color cannot be the same.",
  "app.components.EditProfileForm.save": "Save",
  "app.components.EmptyBadge.emptyBadge.message": "No Badges yet",
  "app.components.Introduction.content.introAdvantage": "당신이 획득한 학교 배지는 블록체인에 저장되고 언제 어디서나 사용할 수 있습니다. Ex) LinkedIn, Facebook, and more!",
  "app.components.Introduction.content.introContent": "학교 이메일로(.edu .ac.kr) 인증하여 학교 배지를 발급받고, CAT 코인을 획득하세요.",
  "app.components.Introduction.content.question": "Is your school most blockchain-savvy?",
  "app.components.Introduction.learnMore": "자세히 보기",
  "app.components.Introduction.title.cryptoBadge": "CryptoBadge",
  "app.components.Introduction.title.university": "University Battle",
  "app.components.LoginForm.label.email": "Email",
  "app.components.LoginForm.label.password": "Password",
  "app.components.LoginForm.validation.email.message": "정확한 이메일 주소를 입력하세요.",
  "app.components.MessageBox.button.cancel.defaultLabel": "CANCEL",
  "app.components.MessageBox.button.ok.defaultLabel": "OK",
  "app.components.MiningBox.cat": "CAT",
  "app.components.MwColorPicker.mode.background": "Background Color",
  "app.components.MwColorPicker.mode.text": "Text Color",
  "app.components.OauthApplication.header": "This is the OauthApplication component !",
  "app.components.PotentialWinnerForm.addNewPotentialWinnerTitle": "Add new Potential Winner",
  "app.components.PotentialWinnerForm.cancelBtnText": "Cancel",
  "app.components.PotentialWinnerForm.emailLabel": "Email",
  "app.components.PotentialWinnerForm.emailValid": "Email looks great :)",
  "app.components.PotentialWinnerForm.isEmailTakenText": "이미 사용중인 이메일입니다",
  "app.components.PotentialWinnerForm.isEmailText": "정확한 이메일 주소를 입력하세요",
  "app.components.PotentialWinnerForm.submitBtnText": "Submit",
  "app.components.PotentialWinnerForm.winnerNameLabel": "Winner name",
  "app.components.PotentialWinnerList.action": "Action",
  "app.components.PotentialWinnerList.deleteBtnText": "Delete",
  "app.components.PotentialWinnerList.emailAddress": "이메일 주소",
  "app.components.PotentialWinnerList.indexText": "No.",
  "app.components.PotentialWinnerList.issuedDate": "Issued Date",
  "app.components.PotentialWinnerList.pending": "Pending",
  "app.components.PotentialWinnerList.status": "Status",
  "app.components.PotentialWinnerList.winnerName": "Winner name",
  "app.components.PotentialWinnerList.won": "Won",
  "app.components.RoundBox.badges": "Badges",
  "app.components.SearchBox.loadingMessage": "Loading...",
  "app.components.SearchBox.noResult": "No Result",
  "app.components.SearchBox.placeholder": "Search University",
  "app.components.SettingForm.cancelBtnText": "Cancel",
  "app.components.SettingForm.currentPasswordInputFieldLabel": "Current Password",
  "app.components.SettingForm.currentUrlLabel": "Current URL",
  "app.components.SettingForm.emailInputFieldLabel": "Email",
  "app.components.SettingForm.emailInputFieldSuccessMessage": "Email looks great :)",
  "app.components.SettingForm.isEmailTakenText": "이미 사용중인 이메일입니다",
  "app.components.SettingForm.isEmailText": "정확한 이메일 주소를 입력하세요",
  "app.components.SettingForm.makeEmailPrimaryBtnText": "Make primary",
  "app.components.SettingForm.newPasswordInputFieldLabel": "New Password",
  "app.components.SettingForm.pNameValidationMessage": "URL may only use letters, numbers, \".\", and \"_\"",
  "app.components.SettingForm.primaryEmailLabel": "Primary",
  "app.components.SettingForm.profileUrlValidationMessage": "Oops! That's the same URL you're using now",
  "app.components.SettingForm.resendVerificationBtnText": "Resend Verification",
  "app.components.SettingForm.saveBtnText": "Save",
  "app.components.SettingForm.sendVerificationBtnText": "Send Verification",
  "app.components.SettingForm.urlErrorMessage": "URL is not available",
  "app.components.SettingForm.urlInputFieldLabel": "Enter your URL",
  "app.components.SettingForm.urlInputFieldSuccessMessage": "URL available",
  "app.components.SettingForm.verifyPasswordErrorMessage": "Your verify password isn't matching",
  "app.components.SettingForm.verifyPasswordInputFieldLabel": "Verify Password",
  "app.components.ShareGuide.countInvite": "Count your invites, and…",
  "app.components.ShareGuide.grantToken": "Grant token awards!",
  "app.components.ShareGuide.login": "로그인",
  "app.components.ShareGuide.recommend": "We strongly recommend you to",
  "app.components.ShareGuide.uniqueUrl": "Provide a unique URL only for you",
  "app.components.ShareGuide.weCan": "so we can",
  "app.components.ShareMessageBox.copiedToClipboard": "Copied",
  "app.components.ShareMessageBox.copyToClipboard": "Copy to clipboard",
  "app.components.ShareMessageBox.whereToShare": "Where to share?",
  "app.components.SignUpForm.emailHasBeenTakenErrorMessage": "이미 사용중인 이메일입니다",
  "app.components.SignUpForm.emailInputFieldLabel": "Email",
  "app.components.SignUpForm.emailInputFieldSuccessMessage": "Email looks great :)",
  "app.components.SignUpForm.emailValidationMessage": "유효한 이메일 주소를 입력하세요",
  "app.components.SignUpForm.passwordInputFieldLabel": "Password",
  "app.components.SignUpForm.passwordInputFieldSuccessMessage": "Your password is great. Nice work!",
  "app.components.Slider.winBadges": "학교 배지 받기",
  "app.components.TokenBalance.tokenBalanceTitle": "Token Balance",
  "app.components.TokenTransactionHistory.cat": "CAT",
  "app.components.TokenTransactionHistory.category": "Category",
  "app.components.TokenTransactionHistory.date": "Date",
  "app.components.TokenTransactionHistory.description": "Description",
  "app.components.UniversityItem.badges": "Badges",
  "app.components.UrlBox.copyLink": "Copy Link",
  "app.components.UrlBox.onlyYou": "Share this unique URL only for you!",
  "app.components.UrlBox.shareLink": "Share Link",
  "app.components.UrlBox.shareUrl": "You can share this URL, but...",
  "app.components.WinnerCount.inviteFriend": "Invite Friends",
  "app.components.WinnerShare.copiedToClipboard": "Copied",
  "app.components.WinnerShare.copyToClipboard": "Copy to clipboard",
  "app.components.name.earnedToken": "You’ve Earned {tokenCount} CAT!",
  "app.components.name.inviteFriend": "친구를 초대하고 CAT 을 획득하세요!",
  "app.components.name.inviteMoreFriend": "친구를 초대하고 더 많은 CAT 을 획득하세요!",
  "app.components.name.login": "Log In & Check Your Badges!",
  "app.components.utils.isEmail": "It must be an email",
  "app.components.utils.isEmailDomain": "유효한 이메일 도메인이어야 합니다",
  "app.components.utils.isNumber": "It must be number",
  "app.components.utils.isPhone": "It must be phone number",
  "app.components.utils.isRequired": "This field is required",
  "app.components.utils.maxLength": "Maximum length is {n}",
  "app.components.utils.minLength": "Minimum length is {n}",
  "app.components.utils.phoneNumberLength": "Your phone number must be from {min} to {max} characters",
  "app.containers.AddDomainPage.listDomainTitle": "Registered Domains",
  "app.containers.AddDomainPage.metaDescription": "Description of AddDomainPage",
  "app.containers.AddDomainPage.noResult": "No result",
  "app.containers.AddDomainPage.pageTitle": "Add Domain",
  "app.containers.AddDomainPage.subTitle": "Add a domain",
  "app.containers.AddDomainPage.submitButton": "Submit",
  "app.containers.AddDomainPage.submitSuccessMessage": "Your request has been successfully submitted.",
  "app.containers.AddDomainPage.title": "Does your school have multiple domains?",
  "app.containers.AddDomainPage.universityHasNotReviewd": "This university has not been reviewed yet",
  "app.containers.AddSchoolForm.area": "Area",
  "app.containers.AddSchoolForm.schoolName": "School Name",
  "app.containers.AddSchoolForm.subTooltipContent": "For example, https://www.yourschool.edu/identity.html",
  "app.containers.AddSchoolForm.submitBtnText": "Submit",
  "app.containers.AddSchoolForm.symbolImageReference": "Symbol Image Reference (Optional)",
  "app.containers.AddSchoolForm.tooltipContent": "Input a reference webpage and let us know what images are used as official symbols.",
  "app.containers.AddSchoolForm.verifyUniversityNameErrorMessage": "University name has already been taken",
  "app.containers.AddSchoolsPage.addSchoolTitle": "Is your school not on the list?",
  "app.containers.AddSchoolsPage.metaDescription": "Here's the list of Blockchain-savvy universities. Win your university badge and earn token rewards.",
  "app.containers.AddSchoolsPage.noResultTitle": "The school is not on the list!",
  "app.containers.AddSchoolsPage.pageTitle": "Add a School",
  "app.containers.AddSchoolsPage.submitSuccessMessage": "Your request has been successfully submitted.",
  "app.containers.AddSchoolsPage.title": "Add a school",
  "app.containers.App.addEmailSuccessMessage": "You have successfully added your email: {email}",
  "app.containers.App.checkClaimBadgeTokenErrorMessage": "The logged in account is different from which one used for claiming badge",
  "app.containers.App.claimBadgeSuccessMessage": "Claimed badge successfully.",
  "app.containers.App.completeTaskContent": "Congratulation! You have earned {amountOfEarnedCAT} CAT",
  "app.containers.App.completeTaskNextBtn": "Next Quest",
  "app.containers.App.completeTaskOkBtn": "Ok",
  "app.containers.App.completeTaskTitle": "Mining Quest",
  "app.containers.App.messageTitle": "Adding email success",
  "app.containers.App.okButtonText": "OK",
  "app.containers.AuthorizationPagePage.authorizeButtonText": "Authorize",
  "app.containers.AuthorizationPagePage.cancelButtonText": "Cancel",
  "app.containers.AuthorizationPagePage.errorMessage": "Oops! Something went wrong in getting information.",
  "app.containers.AuthorizationPagePage.metaDescription": "Description of AuthorizationPage",
  "app.containers.AuthorizationPagePage.pageTitle": "Authorization Page",
  "app.containers.AuthorizationPagePage.requestItemText": "Read your private email address.",
  "app.containers.AuthorizationPagePage.requestText": "wants to access your account.\nThis will allow to:",
  "app.containers.AuthorizationPagePage.subTitle": "Authorize",
  "app.containers.BadgeCongratulationPage.issuedBy": "Issued by {issueName}",
  "app.containers.BadgeCongratulationPage.pageTitle": "Congratulations! {winnerName}, you’ve won the {badgeName} badge!",
  "app.containers.BadgeCongratulationPage.seeMyBadgeBtn": "받은 배지 보기",
  "app.containers.BadgeCongratulationPage.subTitle1": "Congratulations, {winnerName}",
  "app.containers.BadgeCongratulationPage.subTitle2": "You've won the {badgeName}",
  "app.containers.BadgeCongratulationPage.subTitle3": "badge!",
  "app.containers.BadgeDetailPage.badgeShowPageTitle": "Badge Show",
  "app.containers.BadgeDetailPage.certDescDescriptionHeading": "Description",
  "app.containers.BadgeDetailPage.certDescHowToWinTheBadgeHeading": "How to win the badge?",
  "app.containers.BadgeDetailPage.certInfoClaimBtnText": "Claim",
  "app.containers.BadgeDetailPage.certInfoIssuerText": "Issued by {issuerName}",
  "app.containers.BadgeDetailPage.certMetaRelatedBadgesHeading": "Related Badges",
  "app.containers.BadgeDetailPage.certMetaWinnerHeadingPlural": "Winners",
  "app.containers.BadgeDetailPage.certMetaWinnerHeadingSingular": "Winner",
  "app.containers.BadgeDetailPage.metaDescription": "Description of Badge Show Page",
  "app.containers.BadgeDetailPage.pageTitle": "{name} CryptoBadge - Issued by {issuerName}",
  "app.containers.BattleDetail.awards": "AWARDS (포상)",
  "app.containers.BattleDetail.badgeForCAT": "학교가 CAT 포상을 받으려면 최소 50개의 배지가 발급되어야 합니다.",
  "app.containers.BattleDetail.catEarnWayForEveryone": "학교 배지를 성공적으로 발급 받은 모든 참여자에게 5 CAT 을 지급합니다.",
  "app.containers.BattleDetail.catEarnWayForInviters": "친구 초대자에게는 초대1명당 30 CAT이 주어집니다. 또한 Top 20% 순위에 오른 학교의 Top 10 초대자에게는 대량의 추가 보상이 주어집니다 - ",
  "app.containers.BattleDetail.catEarnWayForSchools": "Top 20% 순위에 오른 학교에게는 발급된 배지 1개당 50 CAT이 포상으로 주어집니다. 주어진 CAT은 해당 학교 배지보유자 및 Top 초대자들에게 분배됩니다 - ",
  "app.containers.BattleDetail.drawDate": "Battle 종료일",
  "app.containers.BattleDetail.everyone": "모든 참여자",
  "app.containers.BattleDetail.gmt": "GMT",
  "app.containers.BattleDetail.inviters": "초대자",
  "app.containers.BattleDetail.learnMore": "자세히 보기",
  "app.containers.BattleDetail.maxCAT": "Max. 100,000,000 CAT",
  "app.containers.BattleDetail.round": "Round",
  "app.containers.BattleDetail.schools": "학교",
  "app.containers.BattleDetail.whatIsCAT": "CAT (CryptoBadge Alliance Token)은 CAN (CryptoBadge Alliance Network) 블록체인 생태계의 기축 통화이며 발생하는 모든 거래의 기반이 됩니다. 또한 CAT 보유량은 당신이 CryptoBadge Network 의 번영에 얼마나 공헌했는지를 나타내는 지수이자, 커뮤니티내에서의 권한과 Voting Power 의 기반이 되기도 합니다.",
  "app.containers.CatShowPage.checkAvailable": "Check the activities available now.",
  "app.containers.CatShowPage.description": "You can receive CAT by participating in various activities that help growing CryptoBadge ecosystem.",
  "app.containers.CatShowPage.getBtnTxt": "Get Your Token",
  "app.containers.CatShowPage.getMoreCat": "Want to Get More CATs?",
  "app.containers.CatShowPage.metaDescription": "CAT is the main currency of CAN. CAT is a utility token used for every transaction or service operation that happens on CAN.",
  "app.containers.CatShowPage.myLevel": "My Citizen Level",
  "app.containers.CatShowPage.myRank": "My Ranking",
  "app.containers.CatShowPage.nextLevel": "{missingPoint} until next level",
  "app.containers.CatShowPage.pageTitle": "CryptoBadge - CAT Token",
  "app.containers.CatShowPage.totalUser": "/ {total} users",
  "app.containers.CategoryPage.all": "ALL",
  "app.containers.CategoryPage.badgesText": "Badges",
  "app.containers.CategoryPage.issuedText": "Issued",
  "app.containers.CategoryPage.metaDescription": "Discover Badges",
  "app.containers.CategoryPage.pageTitle": "CryptoBadge - Discover Badges",
  "app.containers.CategoryPage.popularBadges": "POPULAR BADGES",
  "app.containers.CategoryPage.searchKey": "Search Key",
  "app.containers.CategoryPage.statsTitle": "HOT BADGES",
  "app.containers.CertificationDetailPage.certDescClaimBadgeBtnText": "Claim",
  "app.containers.CertificationDetailPage.certDescDescriptionHeading": "Description",
  "app.containers.CertificationDetailPage.certDescHowToWinTheBadgeHeading": "How to win the badge?",
  "app.containers.CertificationDetailPage.certInfoClaimBtnText": "Claim",
  "app.containers.CertificationDetailPage.certInfoEvidenceHeading": "Evidence",
  "app.containers.CertificationDetailPage.certInfoEvidenceViewBtnText": "View",
  "app.containers.CertificationDetailPage.certInfoExpirationDateLabel": "Expiration",
  "app.containers.CertificationDetailPage.certInfoIssueDateLabel": "Issue Date",
  "app.containers.CertificationDetailPage.certInfoIssuerText": "Issued by {issuerName}",
  "app.containers.CertificationDetailPage.certInfoWinnerHeading": "Winner",
  "app.containers.CertificationDetailPage.certMetaEvidenceHeading": "Evidence",
  "app.containers.CertificationDetailPage.certMetaEvidenceViewBtnText": "View",
  "app.containers.CertificationDetailPage.certMetaRelatedBadgesHeading": "Related Badges",
  "app.containers.CertificationDetailPage.claimBadgeIntro": "If you believe you are also eligible for this badge, claim your badge!",
  "app.containers.CertificationDetailPage.defaultPageTitle": "Certification Show",
  "app.containers.CertificationDetailPage.pageTitle": "{winnerName}'s {name} CryptoBadge",
  "app.containers.CertificationIssued.title": "{count} Certifications Issued",
  "app.containers.CertificationsPage.header": "This is CertificationsPage container !",
  "app.containers.CertificationsPage.metaDescription": "Description of Certifications",
  "app.containers.CertificationsPage.pageTitle": "Certifications",
  "app.containers.ClaimBadge.claimBadgeErorrMessage": "Claim badge failed.",
  "app.containers.ClaimBadge.emailNotRegisteredByIssuerErorrMessage": "Oops!  Your email address is not listed in the membership DB of the Badge Issuer. Contact the Badge Issuer to receive this badge.",
  "app.containers.ClaimBadge.resendEmailErrorMessage": "Re-send email failed.",
  "app.containers.ClaimBadge.resendEmailSuccessMessage": "Re-sent email successfully.",
  "app.containers.ClaimBadge.sendConfirmationEmailSuccessMessage": "Confirmation email has been sent successfully.",
  "app.containers.CommunityPage.facebookDescription": "Follow us on Facebook",
  "app.containers.CommunityPage.facebookTitle": "Facebook",
  "app.containers.CommunityPage.header": "This is CommunityPage container !",
  "app.containers.CommunityPage.learnMoreDescription": "CryptoBadge 프로젝트 더 알아보기",
  "app.containers.CommunityPage.metaDescription": "CryptoBadge Community",
  "app.containers.CommunityPage.metaDescriptionSecond": "Share Your Vision for CryptoBadge How could Evolve and the Change Is the world!",
  "app.containers.CommunityPage.officialCommunityDescription": "Visit our official community",
  "app.containers.CommunityPage.officialCommunityTitle": "Official Community",
  "app.containers.CommunityPage.pageTitle": "CryptoBadge - Community",
  "app.containers.CommunityPage.subTitle": "Share your vision for how CryptoBadge could evolve and change the world!",
  "app.containers.CommunityPage.telegramDescription": "Join our Telegram group",
  "app.containers.CommunityPage.telegramTitle": "Telegram",
  "app.containers.CommunityPage.title": "Welcome to the CryptoBadge community page!",
  "app.containers.ConfirmationPage.emailConfirmationErrorMessage": "Opps, something's wrong, please re-check!",
  "app.containers.ConfirmationPage.emailConfirmationExpiredMessage": "Your confirmation link has already expired. Please login again and click re-send confirmation email to get a new one!",
  "app.containers.ConfirmationPage.emailConfirmationSuccessMessage": "Your account is confirmed successfully!",
  "app.containers.ConfirmationPage.emailConfirmationTitle": "Email Confirmation",
  "app.containers.ConfirmationPage.metaDescription": "Description of Confirmation Page",
  "app.containers.ConfirmationPage.pageTitle": "Confirmation Page",
  "app.containers.CountryBadgePage.country": "Country",
  "app.containers.CountryBadgePage.enterBtnTxt": "Enter",
  "app.containers.CountryBadgePage.existedPhoneNumberMessage": "The phone number you entered is already being used by other CryptoBadge users.\nPlease check again.",
  "app.containers.CountryBadgePage.getVerifyCode": "Send SMS",
  "app.containers.CountryBadgePage.invalidPhoneNumberFormatMessage": "The phone number you entered in not valid.\nPlease check again.",
  "app.containers.CountryBadgePage.metaDescription": "Description of Country Badge Page",
  "app.containers.CountryBadgePage.pageTitle": "CryptoBadges for Country Badge Page",
  "app.containers.CountryBadgePage.phoneNumber": "Enter your mobile phone number",
  "app.containers.CountryBadgePage.phoneNumberSendFailedMessage": "We failed to send you a SMS. Check your phone number and try again.",
  "app.containers.CountryBadgePage.retrySendVerifyCode": "Resend Code",
  "app.containers.CountryBadgePage.sendVerifyCodeSuccessMessage": "Sent verified code successfully.",
  "app.containers.CountryBadgePage.subTitle": "All you have to do is to verify that you have a mobile phone number of the country.",
  "app.containers.CountryBadgePage.title": "Win Your Country Badge!",
  "app.containers.CountryBadgePage.verifiedCodeLengthValidationMsg": "Your code must be {verifiedCodeLength} characters",
  "app.containers.CountryBadgePage.verifyCode": "Verification Code",
  "app.containers.ExpiredTokenPage.metaDescription": "Description of Expired Token Page",
  "app.containers.ExpiredTokenPage.okBtn": "OK",
  "app.containers.ExpiredTokenPage.pageTitle": "Expired Token",
  "app.containers.ExpiredTokenPage.title1": "Oops, something went wrong!",
  "app.containers.ExpiredTokenPage.title4": "The link you are trying to access is no longer available. Please submit a new request.",
  "app.containers.Footer.aboutCryptoBadge": "About CryptoBadge",
  "app.containers.Footer.copyright": "© 2019 CAN. All rights reserved",
  "app.containers.Footer.disclaimer": "DISCLAIMER: CryptoBadge is not blockchain-enabled yet. It is currently being developed (ETA: Q3 2019)",
  "app.containers.Footer.privacyPolicy": "Privacy Policy",
  "app.containers.Footer.termOfUse": "Terms of Use",
  "app.containers.Footer.visitOurCommunity": "Community",
  "app.containers.ForgotPasswordPage.messageTitle": "Check your email",
  "app.containers.ForgotPasswordPage.metaDescription": "Description of Forgot Password Page",
  "app.containers.ForgotPasswordPage.pageTitle": "Forgot Password",
  "app.containers.ForgotPasswordPage.sendEmailSuccessMessage": "We've sent an email to {email}. Click the link in the email to reset your password. If you don't see the email, check other place it might be, like your junk, spam, social, or other folders.",
  "app.containers.ForgotPasswordPage.subTitle": "비밀번호 리셋을 위한 링크를 이메일로 보내겠습니다. 당신의 계정과 연결된 이메일 주소를 입력하세요.",
  "app.containers.ForgotPasswordPage.submitText": "Send reset link",
  "app.containers.ForgotPasswordPage.title": "Reset password",
  "app.containers.ForgotPasswordPage.userNotFound": "We can't find the account with this email!",
  "app.containers.ForgotPasswordPage.userNotFoundTitle": "Not Found",
  "app.containers.Header.badges": "Badges",
  "app.containers.Header.certifications": "Certifications",
  "app.containers.Header.community": "Community",
  "app.containers.Header.discoverBadges": "Discover Badges",
  "app.containers.Header.getStarted": "시작하기",
  "app.containers.Header.login": "로그인",
  "app.containers.Header.logout": "Logout",
  "app.containers.Header.menu": "Menu",
  "app.containers.Header.mining": "Mining",
  "app.containers.Header.settings": "Settings",
  "app.containers.Header.university": "University Battle",
  "app.containers.HomePage.heroLearnMoreLinkText": "자세히 보기",
  "app.containers.HomePage.heroSubTitle": "Collect CryptoBadges and Join the CryptoBadge Network!",
  "app.containers.HomePage.heroSubTitleForLoggedInUser": "Collect more badges and invite your friends!",
  "app.containers.HomePage.heroTitle": "Win badges, Build fame, Gamify your life!",
  "app.containers.HomePage.heroTooltipContent": "CryptoBadge Network는 초국가적 커뮤니티 연합체입니다. CryptoBadge Network에서는 국적, 나이, 신분증 번호와 같은 전통적 속성이 아닌, 개인의 다양한 경험, 전문성, 열정, 커뮤니티 공헌 등의 기록과 인증에 의해 개인의 Identity가 형성됩니다.",
  "app.containers.HomePage.heroTooltipLinkText": "프로젝트 비전 상세 보기",
  "app.containers.HomePage.hotBadgesAvailableText": "There are currently",
  "app.containers.HomePage.hotBadgesListBadgesWon": "Badge Won",
  "app.containers.HomePage.hotBadgesListBadgesWonPlural": "Badges Won",
  "app.containers.HomePage.hotBadgesListTitle": "HOT BADGES",
  "app.containers.HomePage.hotBadgesMoreBadgesLinkText": "배지 더보기",
  "app.containers.HomePage.hotBadgesNumberBadgesAvailable": "badges available to win.",
  "app.containers.HomePage.metaDescription": "Collect CryptoBadges and Join the CryptoBadge Network!",
  "app.containers.HomePage.notableBadgeWinnersBadgesEarnedPlural": "Badges Earned",
  "app.containers.HomePage.notableBadgeWinnersBadgesEarnedSingular": "Badge Earned",
  "app.containers.HomePage.notableBadgeWinnersLoginButtonText": "시작하기!",
  "app.containers.HomePage.notableBadgeWinnersLoginTitle": "Login and Check your rank",
  "app.containers.HomePage.notableBadgeWinnersMyRankTitle": "MY RANK",
  "app.containers.HomePage.notableBadgeWinnersTopWinnersTitle": "NOTABLE BADGE WINNERS",
  "app.containers.HomePage.pageTitle": "CryptoBadge - Win badges, Build fame, Gamify your life!",
  "app.containers.HomePage.sliderButtonText": "학교 배지 받기",
  "app.containers.HomePage.statsBadgeHoldersTitle": "BADGE HOLDERS",
  "app.containers.HomePage.statsBadgesIssuedTitle": "BADGES ISSUED",
  "app.containers.HomePage.statsCitizenCATTooltipContent": "CAT (CryptoBadge Alliance Token)은 CAN (CryptoBadge Alliance Network) 블록체인 생태계의 기축 통화이며 발생하는 모든 거래의 기반이 됩니다. 또한 CAT 보유량은 당신이 CryptoBadge Network 의 번영에 얼마나 공헌했는지를 나타내는 지수이기도 합니다.",
  "app.containers.HomePage.statsCitizenCATTooltipLinkText": "자세히 보기",
  "app.containers.HomePage.statsCitizenCATTooltipTitle": "CAT 이란?",
  "app.containers.HomePage.statsCitizenCitizenshipNumberTooltip": "Citizenship Number(시민권 번호)는 시민권을 획득한 순서대로 자동으로 부여됩니다. 또한, 초기 시민들은 \"The First 9,999 Founding Citizens\"와 같은 영예로운 배지를 받을 수도 있습니다.",
  "app.containers.HomePage.statsCitizenCryptoBadgeNetworkTooltipContent": "CryptoBadge Network는 초국가적 커뮤니티 연합체입니다. CryptoBadge Network에서는 국적, 나이, 신분증 번호와 같은 전통적 속성이 아닌, 개인의 다양한 경험, 전문성, 열정, 커뮤니티 공헌 등의 기록과 인증에 의해 개인의 Identity가 형성됩니다.",
  "app.containers.HomePage.statsCitizenCryptoBadgeNetworkTooltipLinkText": "프로젝트 비전 상세 보기",
  "app.containers.HomePage.statsCitizenSubTitle": "and become the {newUserCitizenOrdinalNumber} citizen! Your citizenship {newUserCitizenNumber}{toolTip} will be inscribed on your badge.",
  "app.containers.HomePage.statsCitizenSubTitleForLoggedInUser": "현재 보유량 {earnedToken} {toolTip} \n더 많은 배지와 CAT 을 획득해 보세요.",
  "app.containers.HomePage.statsCitizenTitle": "Win your\nTerran Badge",
  "app.containers.HomePage.statsCitizenTitleForLoggedInUser": "You are the {citizenNum} citizen of the CryptoBadge Network",
  "app.containers.HomePage.statsCitizenWinTerranBadgeTooltipContent": "당신이 지구상에 거주하는 인간이라면, Terran Badge를 획득할 자격이 있습니다. Terran Badge는 CryptoBadge Network 의 Citizenship(시민권)의 증표입니다. Terran Badge 보유자는 CAT 토큰(코인)을 모으고 소유할 수 있으며, 카운슬 멤버 선출, 헌법 제정, 토큰(코인) 배포 정책 등 여러 의사 결정 및 Governance 에 참여할 수 있습니다.",
  "app.containers.HomePage.statsNewUserCitizenNumber": "number {newUserCitizenNumber}",
  "app.containers.InviteFriends.copyLinkToClipboardSuccessMessage": "The link has been copied to the clipboard.",
  "app.containers.IssuerBadgeList.automatedVerification.des": "If you already have an email list of potential winners and you want to automatically verify the email owners, upload the list and let CryptoBadge work for you.",
  "app.containers.IssuerBadgeList.automatedVerification.title": "Automated Verification of Email List",
  "app.containers.IssuerBadgeList.createBadge": "Create a Badge!",
  "app.containers.IssuerBadgeList.noBadge": "You have no badge issued yet.",
  "app.containers.IssuerBadgeList.totalBadge": "All {quantity} Badges",
  "app.containers.IssuerPage.defaultPageTitle": "User Profile",
  "app.containers.IssuerPage.editProfileBtn": "프로필 편집",
  "app.containers.IssuerPage.issued": "issued",
  "app.containers.IssuerPage.metaDescription": "User Profile Description",
  "app.containers.IssuerPage.notFoundUserProfile": "User Profile is not found",
  "app.containers.IssuerPage.pageTitle": "{name} - CryptoBadge",
  "app.containers.IssuerPage.won": "won",
  "app.containers.IssuerPortalPage.metaDescription": "Description of Issuer Portal Page",
  "app.containers.IssuerPortalPage.pageTitle": "Issuer Portal Page",
  "app.containers.IssuerPortalPage.title.main": "Certifications",
  "app.containers.IssuerPortalPage.title.sub": "Certifications represent badges issued to individual winners",
  "app.containers.LandingPage.cryptoBadge": "CryptoBadge",
  "app.containers.LandingPage.learnMore": "자세히 보기",
  "app.containers.LandingPage.metaDescription": "Here's the list of Blockchain-savvy universities. Win your university badge and earn token rewards.",
  "app.containers.LandingPage.pageTitle": "CryptoBadges for Universities",
  "app.containers.LandingPage.whatIsCryptoBadge": "CryptoBadge is a blockchain-based certificate that identifies yourself through your unique merits such as achievements, experiences, and contributions.",
  "app.containers.LandingPage.whatisCryptoBadgeTitle": "What is CryptoBadge?",
  "app.containers.LearnMorePage.metaDescription": "Description of Learn More Page",
  "app.containers.LearnMorePage.pageTitle": "Learn More",
  "app.containers.LearnMorePage.section1": "University Battle 규칙",
  "app.containers.LearnMorePage.section1Item1": "1) {section1Item1StrongText}: 성공적으로 학교 배지를 획득한 모든 참여자는 5 CAT 을 받습니다 (see {section1Item1LinkText}).",
  "app.containers.LearnMorePage.section1Item1LinkText": "CAT 이란?",
  "app.containers.LearnMorePage.section1Item1StrongText": "배지 획득",
  "app.containers.LearnMorePage.section1Item2": "2) {section1Item2StrongText}: 초대받은 친구들이 학교 배지를 획득하면 초대자는 초대1명당 30 CAT 을 받습니다 (30 CAT per 1 successful referral)",
  "app.containers.LearnMorePage.section1Item2StrongText": "친구 초대",
  "app.containers.LearnMorePage.section1Item3": "3) {section1Item3StrongText}: Battle 에서 승리한 학교에 소속된 모든 참여자는 아래의 규칙에 따라 추가 CAT 을 획득합니다:",
  "app.containers.LearnMorePage.section1Item3StrongText": "학교별 포상",
  "app.containers.LearnMorePage.section1Item3Sub1": "{section1Item3Sub1StrongText} (발급된 배지수에 기반)은 각 라운드의 승리자가 됩니다. 승리자가 된 Top 20% 학교들에게는 발급된 배지의 수 x 50 만큼의 CAT을 부여합니다. 예를 들어, 어떤 학교가 5,000 명에게 배지를 발급했을 경우, 250,000 CAT 을 해당 학교에 부여합니다.",
  "app.containers.LearnMorePage.section1Item3Sub1StrongText": "Top 20% 순위에 든 학교들",
  "app.containers.LearnMorePage.section1Item3Sub2": "{section1Item3Sub2StrongText} (초대자수에 기반)에게는 학교에 포상으로 주어진 전체 CAT의 70%를 분배합니다. 이 70%의 CAT은 또 다시 각 개인이 초대한 초대자수에 기반하여 비율대로 분배됩니다. 예를 들어, 당신의 학교가 5,000명에게 배지를 발급했고, 당신이 100명의 친구를 초대하여, Top 10 순위에 올랐고, 당신이 초대한 사람들의 수가 Top 10 초대자들이 초대한 모든 사람들 수의 20% 에 해당한다면, 당신은 5,000 x 50 x 70% x 20% = 35,000 CAT을 수령하게 됩니다.",
  "app.containers.LearnMorePage.section1Item3Sub2StrongText": "각 승리한 학교들의 Top 10 초대자들",
  "app.containers.LearnMorePage.section1Item3Sub3": "{section1Item3Sub3StrongText} 에게는 학교에게 포상으로 주어진 전체 CAT의 30%를 분배합니다. 이 30% CAT은 또 다시 각 개인이 초대한 초대자수에 기반하여 비율대로 분배됩니다.",
  "app.containers.LearnMorePage.section1Item3Sub3StrongText": "각 승리한 학교들의 나머지 참여자들",
  "app.containers.LearnMorePage.section1Item4": "부정한 방법으로 Battle 에 참가할 경우 CAT 부여는 취소될 수 있습니다.",
  "app.containers.LearnMorePage.section2": "친구 초대 및 그에 따른 CAT 포상을 극대화 하려면?",
  "app.containers.LearnMorePage.section2Item1": "1) 로그인 후 Share 버튼을 클릭하여, 당신을 위해 생성된 Unique URL을 받으세요. Share 버튼은 {section2Item1LinkText}의 오른편에 있으며, 각각의 학교 페이지의 아래 부분에도 있습니다. 당신을 위해 생성된 Unique URL을 SNS를 통해서 공유하세요. 친구들이 초대에 응하도록 독려하는 것도 잊지 마세요.",
  "app.containers.LearnMorePage.section2Item1LinkText": "University Battle page",
  "app.containers.LearnMorePage.section2Item2": "2) 획득한 배지를 SNS 프로파일에 Embed 하면 효과를 더 극대화 할 수 있습니다.  {section2Item2LinkText}!",
  "app.containers.LearnMorePage.section2Item2LinkText": "방법 보기",
  "app.containers.LearnMorePage.section3": "CryptoBadge has a world changing vision beyond school badges.",
  "app.containers.LearnMorePage.section3Item1": "CryptoBadge is not just for School Challenge. Join the movement towards a transnational meritocratic society, based on true representation of people's passion, abilities, and contributions. {section3Item1LinkText}.",
  "app.containers.LearnMorePage.section3Item1LinkText": "CryptoBadge 프로젝트 더 알아보기",
  "app.containers.LearnMorePage.subTitle1": "CryptoBadge",
  "app.containers.LearnMorePage.subTitle2": "University Battle",
  "app.containers.LoginModal.accountHasNotConfirmed": "Your account has not confirmed yet. Please check out your mailbox again!",
  "app.containers.LoginModal.checkboxLbl": "Remember me",
  "app.containers.LoginModal.errorMessage": "Please double-check your email address or password and try again.",
  "app.containers.LoginModal.forgotPasswordLinkText": "Forgot your password?",
  "app.containers.LoginModal.logInButtonText": "로그인",
  "app.containers.LoginModal.logInTitle": "당신의 CryptoBadge 에 접근하려면 로그인 하세요",
  "app.containers.LoginModal.signUpPrompLinkText": "계정 만들기",
  "app.containers.LoginModal.signUpPromptText": "계정이 아직 없나요?",
  "app.containers.LoginPage.checkboxLbl": "Remember me",
  "app.containers.LoginPage.forgotPasswordLinkText": "Forgot your password?",
  "app.containers.LoginPage.logInButtonText": "로그인",
  "app.containers.LoginPage.logInTitle": "당신의 CryptoBadge 에 접근하려면 로그인 하세요",
  "app.containers.LoginPage.metaDescription": "Description of Login Page",
  "app.containers.LoginPage.pageTitle": "Login",
  "app.containers.LoginPage.signUpPrompLinkText": "계정 만들기",
  "app.containers.LoginPage.signUpPromptText": "계정이 아직 없나요?",
  "app.containers.ManageBadgesPage.header": "{totalBadges} Badges",
  "app.containers.ManageBadgesPage.metaDescription": "Description of Manage Badges Page",
  "app.containers.ManageBadgesPage.pageTitle": "Manage Badges - CryptoBadge",
  "app.containers.Message.errorMessage": "Sorry, something went wrong. We're working on getting this fixed as soon as we can.",
  "app.containers.Message.errorTitle": "External Error",
  "app.containers.Message.externalErrorMessageTitle": "Oops!",
  "app.containers.Message.unknownErrorMessageTitle": "Error",
  "app.containers.MiningHistoryPage.metaDescription": "Description of Mining History",
  "app.containers.MiningHistoryPage.miningActivitiesCatReceived": "received {count} for",
  "app.containers.MiningHistoryPage.miningActivitiesTitle": "Mining Activities",
  "app.containers.MiningHistoryPage.pageTitle": "Mining History",
  "app.containers.MiningHistoryPage.seeTopMinersLinkText": "See Top Miners >",
  "app.containers.MiningHistoryPage.startMiningBtn": "Start Mining Now!",
  "app.containers.MiningHistoryPage.subtitle": "{count} Mining activities have occurred",
  "app.containers.MiningHistoryPage.title": "{count} mined by CryptoBadge\n Citizens and Partners",
  "app.containers.MiningHistoryPage.topMinersListTitle": "Top Miners",
  "app.containers.MiningInstructionPage.bottomContentPopup": "You can change your profile URL in settings",
  "app.containers.MiningInstructionPage.claimYourCountryBadge": "Claim your country badge",
  "app.containers.MiningInstructionPage.claimYourCountryBadgeSubText": "receiving your country badge",
  "app.containers.MiningInstructionPage.clickHereButton": "click here >",
  "app.containers.MiningInstructionPage.completeYourProfile": "Complete your profile",
  "app.containers.MiningInstructionPage.completeYourProfileSubText": "completing your profile by uploading a picture",
  "app.containers.MiningInstructionPage.copyLinkToClipboardSuccessMessage": "The link has been copied to the clipboard.",
  "app.containers.MiningInstructionPage.earnCATBy": "Earn {catNumber} CAT by",
  "app.containers.MiningInstructionPage.header": "Welcome to the CryptoBadge community page!",
  "app.containers.MiningInstructionPage.metaDescription": "Description of Mining Instruction",
  "app.containers.MiningInstructionPage.pageTitle": "Mining Instruction",
  "app.containers.MiningInstructionPage.promoteTheBadgesSubText": "If you are a badge issuer, promote your badge on Facebook, Instagram, etc. Or if you like a certain badge, promote the badge to your friends on Facebook, Instagram, etc.",
  "app.containers.MiningInstructionPage.promoteTheBadgesYouIssuedOrYouLike": "Promote the badges you issued or you like",
  "app.containers.MiningInstructionPage.questMiningSubTitle": "Before jumping into the advanced mining methods, you can simply start to earn CAT by fulfilling quests to become a fully legitimate Citizen of the CryptoBadge Network.",
  "app.containers.MiningInstructionPage.questMiningTitle": "Quest Mining",
  "app.containers.MiningInstructionPage.referralMiningContent": "Referral Mining: You will earn {catTotal} CAT whenever a new user joins CryptoBadge Network (through clicking the link you spread) and finishes receiving a country badge. You will earn additional {catPerDay} CAT whenever the user receives a school badge.",
  "app.containers.MiningInstructionPage.referralTitle": "Referral",
  "app.containers.MiningInstructionPage.referralTrafficMiningSubTitle": "If you finished the basic level up steps above, here's an advanced mining method by which you can earn A LOT more CAT.",
  "app.containers.MiningInstructionPage.referralTrafficMiningTitle": "Referral & Traffic Mining",
  "app.containers.MiningInstructionPage.setUpYourProfileURL": "Set up your profile URL",
  "app.containers.MiningInstructionPage.setUpYourProfileURLSubText": "customizing your profile URL",
  "app.containers.MiningInstructionPage.shareProfileSubText": "Share your CryptoBadge profile with your friends on Facebook, Instagram, etc. \n Share your CryptoBadge profile through your email signature.",
  "app.containers.MiningInstructionPage.shareTheBadgesSubText": "Share the badges you earned with your friends on Facebook, Instagram, etc.",
  "app.containers.MiningInstructionPage.shareTheBadgesYouEarnedWithYourFriends": "Share the badges you earned with your friends",
  "app.containers.MiningInstructionPage.shareYourCryptoBadgeProfile": "Share your CryptoBadge profile",
  "app.containers.MiningInstructionPage.trafficMiningContent": "Traffic Mining: You will earn up to {catPerDay} CAT per day for the traffic generated from the link you spread.",
  "app.containers.MiningInstructionPage.trafficMiningTitle": "Traffic Mining",
  "app.containers.MiningInstructionPage.winYourSchoolBadge": "Win your school badge",
  "app.containers.MiningInstructionPage.winYourSchoolBadgeSubText": "winning your school badge (If your school is not registered in our site yet, you can ask us to add your school)",
  "app.containers.ModalContainer.header": "This is ModalContainer container !",
  "app.containers.MwSignUpPage.and": "and",
  "app.containers.MwSignUpPage.getStarted": "시작하기",
  "app.containers.MwSignUpPage.login": "로그인",
  "app.containers.MwSignUpPage.loginText": "계정이 이미 있다면,",
  "app.containers.MwSignUpPage.privacyPolicy": "Privacy Policy",
  "app.containers.MwSignUpPage.termsOfService": "Terms of Service",
  "app.containers.MwSignUpPage.title": "Sign up to get\nyour",
  "app.containers.MwSignUpPage.tosNote": "By clicking this button, you agree to\nCrypto Badge’s",
  "app.containers.MyProfilePage.CATEarnedToolTip": "{earnedToken} {toolTip} You own",
  "app.containers.MyProfilePage.countryBadgeName": "Country Badge",
  "app.containers.MyProfilePage.countryBadgePromoTooltip": "Win Your\nCountry Badge here!",
  "app.containers.MyProfilePage.defaultPageTitle": "Winner",
  "app.containers.MyProfilePage.editProfileBtn": "프로필 편집",
  "app.containers.MyProfilePage.goToCountryBadge": "Go to {badgeName} claim >",
  "app.containers.MyProfilePage.learnMore": "자세히 보기",
  "app.containers.MyProfilePage.metaDescription": "Description of Winner Page",
  "app.containers.MyProfilePage.miningButton": "Mine A LOT More CAT!",
  "app.containers.MyProfilePage.pageTitle": "{name} - CryptoBadge",
  "app.containers.MyProfilePage.terranBadgeTooltipTitle": "Congratulations on becoming the {citizenOrdinalNumber} CryptoBadge Network Citizen!",
  "app.containers.MyProfilePage.whatIsTerranBadge": "Terran Badge는 CryptoBadge Network 의 Citizenship(시민권)의 증표입니다. Terran Badge 보유자는 CAT 토큰(코인)을 모으고 소유할 수 있으며, 카운슬 멤버 선출, 헌법 제정, 토큰(코인) 배포 정책 등 여러 의사 결정 및 Governance 에 참여할 수 있습니다.",
  "app.containers.NotFoundPage.btnText": "Go to Home",
  "app.containers.NotFoundPage.metaDescription": "Description of Not Found Page",
  "app.containers.NotFoundPage.pageTitle": "Not Found",
  "app.containers.NotFoundPage.subTitle": "We can't seem to find the page you're looking for",
  "app.containers.NotFoundPage.title": "Oops, something went wrong!",
  "app.containers.PotentialWinner.automatedVerification.des": "If you already have an email list of potential winners and you want to automatically verify the email owners, upload the list and let CryptoBadge work for you.",
  "app.containers.PotentialWinner.automatedVerification.title": "Automated Verification of Email List",
  "app.containers.PotentialWinner.createBadge": "Create a Badge!",
  "app.containers.PotentialWinner.messageBoxText": "Are you sure you want to delete this email address from the list?",
  "app.containers.PotentialWinner.statistic.addEmailAddress": "새 이메일 추가",
  "app.containers.PotentialWinner.statistic.all": "All",
  "app.containers.PotentialWinner.statistic.cancelEmailAddress": "Cancel",
  "app.containers.PotentialWinner.statistic.pending": "Pending",
  "app.containers.PotentialWinner.statistic.won": "Won",
  "app.containers.RankingPage.addDomainBtn": "Add a domain",
  "app.containers.RankingPage.badges": "Badges",
  "app.containers.RankingPage.claimBadgeErorrMessage": "Claim badge failed.",
  "app.containers.RankingPage.claimYourBadge": "배지 발급 요청",
  "app.containers.RankingPage.claimYourBadgeLowerCase": "배지 발급 요청",
  "app.containers.RankingPage.confirmYourEmail": "이메일은 인증하세요",
  "app.containers.RankingPage.globalRankings": "Global Rankings",
  "app.containers.RankingPage.inviteMoreFriends": "Invite More Friends",
  "app.containers.RankingPage.metaDescription": "Description of Ranking Page",
  "app.containers.RankingPage.noReferrer": "There is no referrer.",
  "app.containers.RankingPage.pageTitle": "CryptoBadge - University Page",
  "app.containers.RankingPage.registeredDomains": "Registered Domains",
  "app.containers.RankingPage.resendEmail": "인증 이메일(confirmation email) 다시 발송하기",
  "app.containers.RankingPage.resendEmailErrorMessage": "Re-send email failed.",
  "app.containers.RankingPage.resendEmailSuccessMessage": "Re-sent email successfully.",
  "app.containers.RankingPage.round1st": "1st Round",
  "app.containers.RankingPage.round2nd": "2nd Round",
  "app.containers.RankingPage.round3rd": "3rd Round",
  "app.containers.RankingPage.sendConfirmationEmailSuccessMessage": "Confirmation email has been sent successfully.",
  "app.containers.RankingPage.subClaimYourBadge": "학교 이메일로(.edu .ac.kr) 인증하여 학교 배지를 발급받고, CAT 코인을 획득하세요.",
  "app.containers.RankingPage.subConfirmYourEmail": "이메일 확인 후, 메일속 링크를 클릭하여 인증해주세요.",
  "app.containers.RankingPage.topReferrers": "Top referrers",
  "app.containers.RankingPage.universityHasNotReviewed": "This university has not been reviewed yet",
  "app.containers.RankingPage.yourName": "Your Name",
  "app.containers.RankingPage.yourRanking": "Your Ranking",
  "app.containers.RankingPage.yourRankingLabel": "You",
  "app.containers.RankingPage.yourSchoolEmail": "Your School Email",
  "app.containers.ResetPasswordForm.emailLabel": "이메일 주소",
  "app.containers.ResetPasswordForm.isEmailText": "정확한 이메일 주소를 입력하세요",
  "app.containers.ResetPasswordForm.isRequiredText": "이메일 주소를 입력하세요.",
  "app.containers.ResetPasswordForm.newPasswordLabel": "Type your new Password",
  "app.containers.ResetPasswordForm.newPasswordSuccessMessage": "Your password is great. Nice work!",
  "app.containers.ResetPasswordForm.verifyPasswordErrorMessage": "Password do not match",
  "app.containers.ResetPasswordForm.verifyPasswordLabel": "Type your new password one more time",
  "app.containers.ResetPasswordForm.verifyPasswordSuccessMessage": "Password matches",
  "app.containers.ResetPasswordPage.changePasswordSuccessMessage": "Congratulations! You've successfully changed your password.",
  "app.containers.ResetPasswordPage.metaDescription": "Description of Reset Password Page",
  "app.containers.ResetPasswordPage.pageTitle": "Reset Password",
  "app.containers.ResetPasswordPage.rememberMeCheckBox": "Remember me",
  "app.containers.ResetPasswordPage.subTitle": "Strong password include letters, numbers, and punctuation marks.",
  "app.containers.ResetPasswordPage.submitButtonContent": "Submit",
  "app.containers.ResetPasswordPage.title": "Reset your password",
  "app.containers.ResetPasswordPage.typeNewPassword": "Type your new Password",
  "app.containers.ResetPasswordPage.typeNewPasswordOneMoreTime": "Type your new Password one more time",
  "app.containers.RevokeTokenPage.header": "This is RevokeTokenPage container !",
  "app.containers.SettingsPage.addBtnText": "Add",
  "app.containers.SettingsPage.addEmailSuccessMessage": "We just emailed a confirmation link to  {email}. \nClick the link to complete your email set-up.",
  "app.containers.SettingsPage.addPhoneNumber": "Add your mobile number and get your country badge!",
  "app.containers.SettingsPage.cancelButtonText": "CANCEL",
  "app.containers.SettingsPage.changePasswordSuccessMessage": "Your password has been changed!",
  "app.containers.SettingsPage.changeProfileUrlConfirmationMessage": "When you change your profile URL, existing links to your profile will no longer work. You must update this link on any external sites.",
  "app.containers.SettingsPage.checkCurrentEmailsMessageTitle": "Check your current emails",
  "app.containers.SettingsPage.checkYourEmailMessageTitle": "Check your email",
  "app.containers.SettingsPage.editBtnText": "Edit",
  "app.containers.SettingsPage.emailAddressListLabel": "이메일 주소들",
  "app.containers.SettingsPage.incorrectCurrentPasswordErrorMessage": "Your current password is incorrect.",
  "app.containers.SettingsPage.metaDescription": "Description of Setting Page",
  "app.containers.SettingsPage.myAccountSection": "My Account",
  "app.containers.SettingsPage.okButtonText": "OK",
  "app.containers.SettingsPage.okChangeButtonText": "Ok, change it",
  "app.containers.SettingsPage.pageTitle": "Setting",
  "app.containers.SettingsPage.passwordBtnGroupLabel": "Password",
  "app.containers.SettingsPage.passwordFormLabel": "Password",
  "app.containers.SettingsPage.phoneNumbersTitle": "Mobile Phone Numbers",
  "app.containers.SettingsPage.primaryPhoneLabel": "Primary",
  "app.containers.SettingsPage.profileUrlBtnGroupLabel": "Profile URL",
  "app.containers.SettingsPage.profileUrlEditGroupLabel": "Profile URL",
  "app.containers.SettingsPage.profileUrlFormLabel": "Profile URL",
  "app.containers.SettingsPage.reSendToManyTimesMessage": "It looks like you've tried to resend too many times. \n Please wait 10 minutes and try again.",
  "app.containers.SettingsPage.removeButtonText": "REMOVE",
  "app.containers.SettingsPage.removeEmailConfirmationMessage": "Are you sure you want to remove this email?",
  "app.containers.SettingsPage.resendConfirmEmailSuccessMessage": "We just emailed a confirmation link to {myEmail}.\n Click the link to complete your email set-up.",
  "app.containers.SettingsPage.setting": "Setting",
  "app.containers.SettingsPage.tooManyEmailsHaveBeenAdded": "You added too many emails, delete your old emails to add a new one.",
  "app.containers.SignUpModal.buttonText": "시작하기",
  "app.containers.SignUpModal.conditionText": "By clicking this button, you agree to \nCrypto Badge’s {termOfServiceText} and {privacyText}.",
  "app.containers.SignUpModal.loginPromptText": "계정이 이미 있다면,",
  "app.containers.SignUpModal.loginText": "로그인",
  "app.containers.SignUpModal.privacyText": "Privacy Policy",
  "app.containers.SignUpModal.termOfServiceText": "Term Of Service",
  "app.containers.SignUpModal.title": "CryptoBadge",
  "app.containers.SignUpModal.title1": "{signUpTitle} 을 받고 보관하기 위해\n계정을 만드세요!",
  "app.containers.SignUpPage.checkYourEmailMessageTitle": "Check your email",
  "app.containers.SignUpPage.congratulationsMsg": "Congratulations, {winnerName}!\n배지 획득을 위한 인증에\n성공했습니다.",
  "app.containers.SignUpPage.emailConfirmationSuccessMessage": "We just emailed a confirmation link to {email}. Click the link to complete your account set-up.",
  "app.containers.SignUpPage.emailHasBeenUsedErrorMessage": "You can not sign up with this email! It had been used already.",
  "app.containers.SignUpPage.errorMessageTitle": "Error",
  "app.containers.SignUpPage.forgotPassword": "Forgot your password?",
  "app.containers.SignUpPage.heading": "Deliver my badge to",
  "app.containers.SignUpPage.issuerDescription": "Issued by {issuerName}",
  "app.containers.SignUpPage.metaDescription": "Description of Sign Up Page",
  "app.containers.SignUpPage.mwAnnouncement": "You've received a badge!",
  "app.containers.SignUpPage.mwCongratulationsMsg": "Congratulations, {winnerName}",
  "app.containers.SignUpPage.pageTitle": "Sign Up",
  "app.containers.SignUpPage.privacyPolicyLinkText": "Privacy Policy",
  "app.containers.SignUpPage.signInButtonText": "Sign In",
  "app.containers.SignUpPage.signInHeading": "CryptoBadge 를 받고 보관하기 위해 계정을 만드세요!",
  "app.containers.SignUpPage.signInSubHeading": "Collect CryptoBadges, Build fame, Gamify your life!",
  "app.containers.SignUpPage.signUpNote": "By clicking this button, you agree to\nCrypto Badge’s {termsLink} and {privacyPolicyLink}",
  "app.containers.SignUpPage.subHeading1": "Is this your first CryptoBadge? Enter the following information. You need it when you access the badges you won.",
  "app.containers.SignUpPage.subHeading2": "Already have an account? {signIn}!",
  "app.containers.SignUpPage.termsLinkText": "Terms of Service",
  "app.containers.Status.header": "This is Status container !",
  "app.containers.TermsOfPolicyPage.eighthSubTitle": "8. Does this Privacy Policy cover third party links?",
  "app.containers.TermsOfPolicyPage.eighthSubTitleContentPara1": "This Privacy Policy applies solely to information collected by our Site. In an attempt to provide you with increased value, we may include third party links on our Site. These linked sites have separate and independent privacy policies. We therefore have no responsibility or liability for the content and activities of these linked sites. Nonetheless, we seek to protect the integrity of our Site and welcome any feedback about these linked sites (including if a specific link does not work).",
  "app.containers.TermsOfPolicyPage.eleventhSubTitle": "11. What happens if you are a non­ Hong Kong resident?",
  "app.containers.TermsOfPolicyPage.eleventhSubTitleContentPara1": "It is important to note that the Site and Services are offered under Hong Kong law. If you are located outside of Hong Kong, please be aware that any visitor information you provide to us will be transferred to Hong Kong and/or other countries. By using the Site or Services and/or providing us with your visitor information, you consent to this transfer.",
  "app.containers.TermsOfPolicyPage.fifthSubTitle": "5. Do we use \"cookies\"?",
  "app.containers.TermsOfPolicyPage.fifthSubTitleContentPara1": "Yes. Cookies are small files that a site or its service provider transfers to your computer's hard drive through your browser (if you allow) that enables the site's or service provider's systems to recognize your browser and capture and remember certain information. For instance, we use cookies to help us remember items you have searched for in the past. Cookies are also used to help us understand your preferences based on previous or current site activity, which enables us to provide you with improved Services. We also use cookies to help us compile aggregate data about site traffic and site interaction so that we can offer better site experiences and tools in the future.",
  "app.containers.TermsOfPolicyPage.fifthSubTitleContentPara2": "We may contract with third ­party service providers to assist us in better understanding our Site visitors and Members. These service providers are not permitted to use the information collected on our behalf except to help us conduct and improve our business.",
  "app.containers.TermsOfPolicyPage.fifthSubTitleContentPara3": "You can choose to have your computer warn you each time a cookie is being sent, or you can choose to turn off all cookies. You do this through your browser (such as Mozilla Firefox or Internet Explorer) settings. Each browser is a little different, so look at your browser Help menu to learn the correct way to modify your cookies. If you turn cookies off, you won't have access to many features that make your Site experience more efficient and some of our services will not function properly, and registered users may not be able to login properly.",
  "app.containers.TermsOfPolicyPage.firstIntro": "Your access to, and use of, the Site and Services is subject to CAN's Terms of Use (each, the “Terms”). Subject to the provisions of applicable laws, any personal information you submit to CAN will not be used in any manner to which you have not consented. This privacy policy (“Privacy Policy”) describes how CAN protects the privacy and security of personally identifiable information of users of our Site and Services. Any capitalized terms used but not defined in this Privacy Policy have the respective meanings given them in the applicable Terms.",
  "app.containers.TermsOfPolicyPage.firstSubTitle": "1. What does this Privacy Policy cover?",
  "app.containers.TermsOfPolicyPage.firstSubTitleContent": "This Privacy Policy covers how CAN treats personally identifiable information that it collects and receives through the Site or Services. Personal information is information about you that is personally identifiable (e.g., your name, address, e­mail address or phone number) and not otherwise publicly available.",
  "app.containers.TermsOfPolicyPage.fourthSubTitle": "4. Do we disclose the information we collect to outside parties?",
  "app.containers.TermsOfPolicyPage.fourthSubTitleContentPara1": "We generally do not sell, trade, or otherwise transfer to outside parties your personally identifiable information unless we provide you with advance notice, except as described in this Privacy Policy. The term \"outside parties\" does not include our affiliates and any other parties who assist us in offering Services, conducting our business, or servicing you, so long as those parties agree to keep this information confidential. If we sell our company, or otherwise transfer any assets of our company, we may provide your personal information to the purchaser so that you may continue the relationship or business with us and our products. We may also release your personal information when we believe release is appropriate to comply with the law, enforce our policies, or protect ours or others' rights, property, or safety.",
  "app.containers.TermsOfPolicyPage.fourthSubTitleContentPara2": "However, non­ personally identifiable information may be provided to other parties for marketing, advertising, or other uses.",
  "app.containers.TermsOfPolicyPage.issuedTime": "Last Updated: January 2019",
  "app.containers.TermsOfPolicyPage.metaDescription": "Terms Of Policy",
  "app.containers.TermsOfPolicyPage.ninthSubTitle": "9. Does this Privacy Policy apply to offline information?",
  "app.containers.TermsOfPolicyPage.ninthSubTitleContentPara1": "This Privacy Policy applies only to information collected through our Site or Services and not to information collected offline.",
  "app.containers.TermsOfPolicyPage.pageTitle": "Terms Of Policy",
  "app.containers.TermsOfPolicyPage.privacyPolicy": "Privacy Policy",
  "app.containers.TermsOfPolicyPage.secondIntro": "By using the Site or Services, you consent to the collection and use of your personal information by CAN in accordance with this Privacy Policy. If you do not agree to the terms of this Privacy Policy, please do not use the Site or Services. If we decide to change our Privacy Policy, we will post those changes on this page. Policy changes will apply only to information collected after the date of the change.",
  "app.containers.TermsOfPolicyPage.secondSubTitle": "2. What information do we collect?",
  "app.containers.TermsOfPolicyPage.secondSubTitleContentPara1": "We may collect personal information under the following circumstances.",
  "app.containers.TermsOfPolicyPage.secondSubTitleContentPara2": "When you create an account, we may ask you for your e­mail address or other personal information. You may, however, visit our Site without providing such personal information.",
  "app.containers.TermsOfPolicyPage.secondSubTitleContentPara3": "We use IP addresses and session identifiers to analyze trends, to administer the Site and Services, to track user activities, to infer user interests, and to otherwise induce, deduce, and gather information about individual users and market segments.",
  "app.containers.TermsOfPolicyPage.secondSubTitleContentPara4": "We may also collect your geographic location, browser­ type, operating system and other software or hardware information.",
  "app.containers.TermsOfPolicyPage.secondSubTitleContentPara5": "We use internal tools and third party applications and services (such as Google Analytics) to collect and analyze information.",
  "app.containers.TermsOfPolicyPage.secondSubTitleContentPara6": "Like many websites, we use \"cookies\" to enhance your experience and gather information about visitors and visits to our Site. Please refer to the \"Do we use 'cookies'?\" section below for information about cookies and how we use them.",
  "app.containers.TermsOfPolicyPage.secondSubTitleContentPara7": "We will also collect any information that you provide to us if you create a personal profile, search our Site or Services, post Member Content or correspond with CAN.",
  "app.containers.TermsOfPolicyPage.seventhSubTitle": "7. How do we safeguard your personal information?",
  "app.containers.TermsOfPolicyPage.seventhSubTitleContentPara1": "CAN follows generally accepted industry security standards to safeguard and help prevent unauthorized access, maintain data security and correctly use your personally identifiable information. However, no commercial method of information transfer over the Internet or electronic data storage is known to be 100% secure. As a result, we cannot guarantee the absolute security of that information during its transmission or its storage in our systems.",
  "app.containers.TermsOfPolicyPage.sixthSubTitle": "6. How do I opt­out information collection?",
  "app.containers.TermsOfPolicyPage.sixthSubTitleContentPara1": "You may opt out of information collection by deactivating your account. You can deactivate your account at any time by visiting the preference page of your profile. Although your account will be disabled, all of your posts and content submissions will remain on the website and publicly available. CAN is under no obligation to remove any publicly available Member Content after your account has been deactivated.",
  "app.containers.TermsOfPolicyPage.tenthSubTitle": "10. How do you ask questions and provide feedback?",
  "app.containers.TermsOfPolicyPage.tenthSubTitleContentPara1": "If you have questions about this Privacy Policy or any feedback, please contact our privacy team at",
  "app.containers.TermsOfPolicyPage.termsOfPolicy": "Terms of Policy",
  "app.containers.TermsOfPolicyPage.termsOfUse": "Terms of Use",
  "app.containers.TermsOfPolicyPage.thirdSubTitle": "3. How do we use your information?",
  "app.containers.TermsOfPolicyPage.thirdSubTitleContentPara1": "We may use the information we collect from you in the following ways:",
  "app.containers.TermsOfPolicyPage.thirdSubTitleContentPara2": "To personalize your Site experience and the Services and to allow us to deliver the type of content and product offerings in which you are most interested.",
  "app.containers.TermsOfPolicyPage.thirdSubTitleContentPara3": "To allow us to provide better service and respond to your customer service requests.",
  "app.containers.TermsOfPolicyPage.thirdSubTitleContentPara4": "To quickly process your transactions.",
  "app.containers.TermsOfPolicyPage.thirdSubTitleContentPara5": "To administer a promotion, survey or other Site or Services feature.",
  "app.containers.TermsOfPolicyPage.thirdSubTitleContentPara6": "To respond to subpoenas, search warrants, judicial proceedings, court orders, legal process, or other law enforcement measures, to establish or exercise our legal rights, or to defend against legal claims.",
  "app.containers.TermsOfPolicyPage.thirdSubTitleContentPara7": "To investigate, prevent, or take action regarding alleged or actual illegal activities, including fraud, situations involving potential threats to the physical safety or other rights and interests of any person, violations of the applicable Terms, or as otherwise required by law.",
  "app.containers.TermsOfPolicyPage.thirdSubTitleContentPara8": "We may also share information about you for any other purposes disclosed to you at the time we collect your information or pursuant to your consent.",
  "app.containers.TermsOfPolicyPage.thirteenthSubTitle": "13. How do we protect children’s privacy?",
  "app.containers.TermsOfPolicyPage.thirteenthSubTitleContentPara1": "Under Age 13",
  "app.containers.TermsOfPolicyPage.thirteenthSubTitleContentPara2": "We understand the importance of protecting children’s privacy in the interactive online world. The Site and Services are not designed for, or intentionally targeted at, children thirteen (13) years of age or younger. It is not our policy to intentionally collect or maintain information about anyone under the age of thirteen (13). No one under the age of thirteen (13) should submit any personal information to CAN.",
  "app.containers.TermsOfPolicyPage.thirteenthSubTitleContentPara3": "Under Age 18",
  "app.containers.TermsOfPolicyPage.thirteenthSubTitleContentPara4": "Minors under 18 years of age may have the personal information that they have provided to CAN while using this Site or the Services deleted by sending an email to",
  "app.containers.TermsOfPolicyPage.thirteenthSubTitleContentPara5": "requesting deletion. Please note that, while we make reasonable efforts to comply with such requests, deletion of your personal information does not ensure complete and comprehensive removal of that data from all systems.",
  "app.containers.TermsOfPolicyPage.twelfthSubTitle": "12. How do you correct or update personal information?",
  "app.containers.TermsOfPolicyPage.twelfthSubTitleContentPara1": "You can correct or update your personal information by re­registering, updating your profile, or by contacting us by electronic­ mail at",
  "app.containers.TermsOfPolicyPage.twelfthSubTitleContentPara2": "However, we will maintain copies of your information to the extent retained as part of our standard backup/archive process. In addition, these procedures will not remove any of your information that you have provided to other users or third parties, or that has been collected from you by third parties linked from the Site or Services.",
  "app.containers.TopMinersPage.description1": "The rank below is based only on the amount of {sub} by each individual. It doesn’t count the CAT that are transferred or purchased from others.",
  "app.containers.TopMinersPage.description2": "You can also start mining CAT.",
  "app.containers.TopMinersPage.metaDescription": "The rank below is based only on the amount of organically mined CAT by each individual. It doesn't count the CAT that are transferred or purchased from others",
  "app.containers.TopMinersPage.organicallyMinedCAT": "organically mined CAT",
  "app.containers.TopMinersPage.pageTitle": "Top Miners",
  "app.containers.TopMinersPage.start": "Start Mining Now!",
  "app.containers.TopMinersPage.title": "Top Miners",
  "app.containers.UnconfirmedLoginPage.continueBtn": "계속하기",
  "app.containers.UnconfirmedLoginPage.metaDescription": "Description of Unconfirmed Login Page",
  "app.containers.UnconfirmedLoginPage.pageTitle": "Unconfirmed Login",
  "app.containers.UnconfirmedLoginPage.regularText": "이메일 인증 후, 계속하기 버튼을 누르세요",
  "app.containers.UnconfirmedLoginPage.resendEmail": "인증 이메일(confirmation email) 다시 발송하기",
  "app.containers.UnconfirmedLoginPage.resendEmailMessageTitle": "Confirm your email address!",
  "app.containers.UnconfirmedLoginPage.resendEmailSuccessMessage": "We just emailed a confirmation link to {email}. Click the link to complete your account set-up.",
  "app.containers.UnconfirmedLoginPage.title": "Unconfirmed Login",
  "app.containers.UnconfirmedLoginPage.title1": "이메일을 인증하세요",
  "app.containers.UnconfirmedLoginPage.title4": "당신의 이메일로 confirmation link (인증 링크)를 발송했습니다.\n이메일을 열고, 이메일 속의 링크를 클릭하여 인증해주세요.",
  "app.containers.UniversityList.noUniversity": "There is no university.",
  "app.containers.UniversityList.topUniversities": "Top 10 Universities",
  "app.containers.UniversityList.universityHasNotReviewed": "This university has been not reviewed yet.",
  "app.containers.UniversityStatistic.badgesIssued": "Badges Issued",
  "app.containers.UniversityStatistic.universities": "Universities",
  "app.containers.UniversityVerifier.addSchoolBtn": "+ Add a school",
  "app.containers.UniversityVerifier.noResult": "No Result",
  "app.containers.UniversityVerifier.subTitle": "단지 학교 이메일을 인증하기만 하면 됩니다.",
  "app.containers.UniversityVerifier.title": "학교 배지를 획득하세요!",
  "app.containers.UniversityVerifier.universityHasNotReviewd": "This university has not been reviewed yet",
  "app.containers.UploadPotentialWinner.chooseCSVBtn": "Choose CSV",
  "app.containers.UploadPotentialWinner.upload": "Upload",
  "app.containers.UploadPotentialWinner.uploadText": "Your file must have Email column!",
  "app.containers.UserProfilePage.defaultPageTitle": "User Profile",
  "app.containers.UserProfilePage.header": "This is UserProfilePage container !",
  "app.containers.UserProfilePage.metaDescription": "User Profile Description",
  "app.containers.UserProfilePage.pageTitle": "{name} - CryptoBadge",
  "app.server.ErrorMessage.categoryNotFound": "category was not found",
  "app.server.ErrorMessage.claimBadgeActivatedLink": "Confirmation link had been already activated, can not be used again anymore",
  "app.server.ErrorMessage.claimBadgeBrokenLink": "Confirmation link was broken. Please use resend confirmation email function",
  "app.server.ErrorMessage.claimBadgeExpired": "Expired claim badge verification! Try it again!",
  "app.server.ErrorMessage.claimBadgeInvalidAccount": "The logged in account is different from which one used for claiming badge",
  "app.server.ErrorMessage.claimBadgeInvalidEmail": "This email was confirmed by another account",
  "app.server.ErrorMessage.claimBadgeTokenInvalid": "Invalid claim badge token",
  "app.server.ErrorMessage.claimBadgeUnloggedIn": "Please log in to claim badge",
  "app.server.ErrorMessage.claimedAccount": "You already claimed this badge. We may have already sent claim badge information to one of your emails",
  "app.server.ErrorMessage.claimedEmail": "This email has already been claimed",
  "app.server.ErrorMessage.emptyEncryptedEmail": "encrypted emails empty",
  "app.server.ErrorMessage.existedPotentialWinner": "The potential winner with badgeId {badgeId} and email {email} has already existed.",
  "app.server.ErrorMessage.failDecryptEmail": "fail to decrypt email",
  "app.server.ErrorMessage.firstLessThanZero": "first parameter in query api can not less than 0",
  "app.server.ErrorMessage.ineligibleEmail": "Email address has not registered. Please ask Issuer if you are eligible for this badge",
  "app.server.ErrorMessage.invalidClaimBadgeEmail": "The email used for claiming already belongs to another user",
  "app.server.ErrorMessage.invalidClaimUniversity": "You have to go to {universityName} page at University Battle to claim this badge",
  "app.server.ErrorMessage.invalidEmail": "Email {email} is not valid",
  "app.server.ErrorMessage.invalidEmailDomain": "Your email domain is not applicable for claiming badge from this university",
  "app.server.ErrorMessage.invalidLoggedInEmailConfirm": "The logged in account is different from which one used for adding email",
  "app.server.ErrorMessage.invalidPhoneConfirmationCode": "Confirmation code is invalid",
  "app.server.ErrorMessage.invalidReferrer": "this referrer does not exist",
  "app.server.ErrorMessage.invalidUpdateValue": "quantity to update count can not be zero",
  "app.server.ErrorMessage.invalidVerifyEmailToken": "The provided token for verify email is invalid",
  "app.server.ErrorMessage.lastLessThanZero": "last parameter in query api can not less than 0",
  "app.server.ErrorMessage.missingAdminPermission": "You are not authorized to do this action",
  "app.server.ErrorMessage.notExistUser": "this user does not exist",
  "app.server.ErrorMessage.reconfirmEmail": "You had already confirmed this email",
  "app.server.ErrorMessage.registeredEmail": "Email {email} had been registered already!",
  "app.server.ErrorMessage.removeConfirmedEmail": "You can not remove confirmed email",
  "app.server.ErrorMessage.requireCreateCertiticationOwner": "You do not have the permission to create certification",
  "app.server.ErrorMessage.requireLoggedIn": "Require logged in",
  "app.server.ErrorMessage.requireRevokeCertificationOwner": "You do not have the permission to revoke this certification",
  "app.server.ErrorMessage.requireUpdateBadgeOwner": "You do not have the permission to update this badge",
  "app.server.ErrorMessage.requireUpdateCertificationOwner": "You do not have the permission to update this certification",
  "app.server.ErrorMessage.resendBelongedEmail": "This email was belonged to another",
  "app.server.ErrorMessage.sentClaimEmail": "We've sent an email to {email}. Click the link in the email to confirm claiming badge. If you don't see the email, check other place it might be, like your",
  "app.server.ErrorMessage.unFoundPhoneNumber": "Phone number was not found",
  "app.server.ErrorMessage.unavailablePhoneNumber": "Phone number is not available",
  "app.utils.errorPasswordMaxLength": "Password should be up to 128 characters",
  "app.utils.errorPasswordMinLength": "Password should be at least 6 characters",
  "app.utils.isFieldRequired": "Required",
  "app.utils.warningPasswordAcceptable": "Your password is acceptable, but only minimally secure",
  "app.utils.warningPasswordGuessable": "Your password is easily guessable. You can do better!"
}
